<svg xmlns="http://www.w3.org/2000/svg" xmlns:xlink="http://www.w3.org/1999/xlink" version="1.1" x="0px" y="0px" viewBox="0 0 24 24" style="enable-background:new 0 0 24 24;" xml:space="preserve"><style type="text/css">
	.st0{fill:#010101;}
	.st1{fill:#231F20;}
</style><g><path class="st0" d="M8.8,6.7c0.5-0.5,1.2-0.8,2-1c0.5-0.1,0.8-0.5,0.8-1V4c0-0.3,0.2-0.5,0.5-0.5s0.5,0.2,0.5,0.5v0.7   c0,0.5,0.3,0.9,0.8,1C15.6,6.2,17,8.2,17,11v3.9l4,4V18c0-0.3-0.1-0.5-0.3-0.7L19,15.6V11c0-3.4-1.7-6.1-4.5-7.1   c0-1.3-1.1-2.4-2.5-2.4S9.5,2.6,9.5,3.9C8.7,4.2,8,4.7,7.4,5.2L8.8,6.7z"></path><path class="st0" d="M15.9,18H5.4l1.3-1.3C6.9,16.5,7,16.3,7,16v-5c0-0.6,0.1-1.2,0.2-1.7L5.6,7.7C5.2,8.7,5,9.8,5,11v4.6l-1.7,1.7   C3.1,17.5,3,17.7,3,18v1c0,0.6,0.4,1,1,1h5.5c0,1.4,1.1,2.5,2.5,2.5s2.5-1.1,2.5-2.5h3.4L15.9,18z M12,21.5c-0.8,0-1.5-0.7-1.5-1.5   h3C13.5,20.8,12.8,21.5,12,21.5z"></path></g><g><path class="st1" d="M21.1,21.6c-0.1,0-0.3,0-0.4-0.1L2.5,3.2C2.3,3,2.3,2.7,2.5,2.5s0.5-0.2,0.7,0l18.2,18.2   c0.2,0.2,0.2,0.5,0,0.7C21.4,21.6,21.3,21.6,21.1,21.6z"></path></g></svg>